…
``` r
last_stat[last_stat$Deaths_To_Recovered > 33,]
```

    ## # A tibble: 0 x 10
    ## # … with 10 variables: Country <fct>, Date <date>, Deaths <dbl>,
    ## #   Confirmed <dbl>, Recovered <dbl>, Deaths_To_Recovered <dbl>,
    ## #   Deaths_To_Confirmed <dbl>, Recovered_To_Confirmed <dbl>,
    ## #   Recovered_To_Deaths <dbl>, Active_To_Confirmed <dbl>

``` r
last_stat[last_stat$Deaths_To_Recovered < ua$Deaths_To_Recovered,]
```

    ## # A tibble: 146 x 10
    ##    Country Date       Deaths Confirmed Recovered Deaths_To_Recov…
    ##    <fct>   <date>      <dbl>     <dbl>     <dbl>            <dbl>
    ##  1 Andorra 2020-11-09     75      5437      4332          0.0173 
    ##  2 Antigu… 2020-11-09      3       131       122          0.0246 
    ##  3 Argent… 2020-11-09  33907   1250499   1073577          0.0316 
    ##  4 Armenia 2020-11-09   1580    107466     64910          0.0243 
    ##  5 Austra… 2020-11-09    907     27669     25454          0.0356 
    ##  6 Austria 2020-11-09   1454    158746     94627          0.0154 
    ##  7 Azerba… 2020-11-09    852     66046     49411          0.0172 
    ##  8 Bahamas 2020-11-09    154      6964      4943          0.0312 
    ##  9 Bahrain 2020-11-09    329     83632     81225          0.00405
    ## 10 Bangla… 2020-11-09   6092    421921    339768          0.0179 
    ## # … with 136 more rows, and 4 more variables: Deaths_To_Confirmed <dbl>,
    ## #   Recovered_To_Confirmed <dbl>, Recovered_To_Deaths <dbl>,
    ## #   Active_To_Confirmed <dbl>
…
